experiment_id,leaf_rank,leaf_age,leaf_length,leaf_width,epi_dw,nb_dw
1,8,45,46.2,1,230.8,0
1,7,39,31.6,1.05,83.5,0
1,6,33,49.2,1.05,489,0
1,5,27,4.5,1,0,7.3
1,4,21,14.8,0.85,0,14.3
1,3,15,27,0.9,0,20.2
1,2,9,8.1,0.7,0,7.1
1,1,3,2,0.4,0,2.6
