experiment_id,leaf_rank,leaf_age,leaf_length,leaf_width,epi_dw,nb_dw
4,8,45,75.5,1.4,2574.7,0
4,7,39,50.2,1.65,3024.6,0
4,6,33,48.5,1.5,1605.4,0
4,5,27,19.5,1.3,474.1,0
4,4,21,61.8,1.45,1990.3,0
4,3,15,86.5,1.6,3241.7,0
4,2,9,29.5,1.2,142.4,15.5
4,1,3,5.8,0.85,0,12.8
4,8,45,58.5,1.45,2192.7,0
4,7,39,52,1.45,1695.1,0
4,6,33,26.5,1.2,404.1,0
4,5,27,37,1.35,229.2,0
4,4,21,11.2,1.2,0,0
4,3,15,20.2,1.35,0,14.2
4,2,9,10,0.85,0,16.6
4,1,3,4.1,0.7,0,8.1
4,11,63,16.5,1.7,294.7,0
4,10,57,51.8,1.6,3571.5,0
4,9,51,34.1,1.6,1662.1,0
4,8,45,28,2.3,2020,0
4,7,39,44.2,2,2853.4,0
4,6,33,36.5,1.7,1788.5,0
4,5,27,16.3,1.3,157.7,0
4,4,21,15.8,1.4,36.5,0
4,3,15,17,1,0,0
4,2,9,19.5,1.1,0,26
4,1,3,4,0.7,0,9.7
4,6,33,60.1,1.65,2476.4,0
4,5,27,15.5,1.2,300.5,0
4,4,21,70.1,1.3,1458.5,0
4,3,15,36.8,1.05,61.5,6.2
4,2,9,30.1,1.15,0,24.3
4,1,3,7,0.75,0,12.2
4,6,33,24.3,1.75,748.5,0
4,5,27,59.6,2,3558.7,0
4,4,21,45.4,1.8,2259,0
4,3,15,47.7,1.85,1562.5,0
4,2,9,13.5,1.4,13.4,0
4,1,3,3,1.2,0,26.4
4,8,45,15.7,1.2,460,0
4,7,39,10.8,0.95,141,0
4,6,33,63.3,1.8,1794.7,0
4,5,27,28,1.4,91.1,0
4,4,21,22.5,1.2,333.2,0
4,3,15,18.5,1.2,27.6,31
4,2,9,7.5,1.05,0,29.8
4,1,3,9.2,1.1,0,20.5
4,8,45,11.5,1.3,263.9,0
4,7,39,27,1.6,948,0
4,6,33,63,1.7,3390.8,0
4,5,27,14.5,1.2,326.5,0
4,4,21,48.2,1.6,2438.4,0
4,3,15,17,1.1,67.1,5.9
4,2,9,10.3,1,2.5,14.3
4,1,3,6.8,0.9,0,12.5
4,6,33,17,1.3,536.8,0
4,5,27,65.5,1.8,1878.4,0
4,4,21,31.2,1.5,1639.4,0
4,3,15,69.3,1.5,1977.8,0
4,2,9,24.6,1.4,276.4,0
4,1,3,13,1.4,0,49.8
4,7,39,11.3,1.3,97.4,0
4,6,33,12.6,1.5,71.3,0
4,5,27,34.6,1.5,801,0
4,4,21,18,1.4,173.5,0
4,3,15,14.1,1,23.6,7.4
4,2,9,21.5,1.35,11.7,29.7
4,1,3,11.8,1.1,0,26.4
4,9,51,40,1.45,1540.4,0
4,8,45,24.5,1.6,1434,0
4,7,39,55.7,1.9,4368.8,0
4,6,33,50,1.7,2872.2,0
4,5,27,47,1.6,2910.8,0
4,4,21,63.5,1.7,2014.3,0
4,3,15,10,1.3,57.7,0
4,2,9,23.7,1.4,12.8,37.3
4,1,3,3.7,0.75,0,12.5
4,8,45,33,1.6,3294.8,0
4,7,39,32.6,1.2,1678.1,0
4,6,33,37.5,1.5,1481.9,0
4,5,27,11.7,1.2,372.4,0
4,4,21,12,1.3,92.6,0
4,3,15,17.3,1.05,17.9,10.6
4,2,9,13.3,1.3,10.3,16.6
4,1,3,2,0.7,0,2.5
4,6,33,33,0.8,715,0
4,5,27,40.5,1.5,1661.3,0
4,4,21,40,1.35,1596.2,0
4,3,15,15.1,1.1,84.2,0
4,2,9,9.5,1.1,4.9,0
4,1,3,3.7,0.7,0,8.2
4,8,45,20,1,781.3,0
4,7,39,34.5,1.2,1166.6,0
4,6,33,17.5,1,225.6,0
4,5,27,56.4,1.3,1801.8,0
4,4,21,8,1.15,65,0
4,3,15,11.8,1,6.3,4.2
4,2,9,10,0.8,0,17.1
4,1,3,15,0.9,0,29.6
4,8,51,10,0.85,66.7,0
4,7,45,28.3,1.9,738.8,0
4,6,39,17,1.3,348.6,0
4,5,33,57,1.7,1375.4,0
4,4,27,13.5,1.4,213.1,0
4,3,21,12.5,1.5,26.4,0
4,2,15,22,1.5,16.3,24.9
4,1,9,27,1.55,4.9,56.2
4,9,51,15,1.8,511.5,0
4,8,45,61,2,1689.3,0
4,7,39,53.4,1.7,3092.4,0
4,6,33,8,1.6,35.5,0
4,5,27,69.3,1.8,1780.9,0
4,4,21,11.3,1.5,53.4,0
4,3,15,12.5,1.5,26.4,0
4,2,9,11,1,6.1,18.4
4,1,3,3.7,0.7,0,12.9
4,9,75,14,1.8,321.6,0
4,8,69,12.3,1.4,338.6,0
4,7,63,7.6,1.25,21.5,0
4,6,57,34.1,1.8,1917.6,0
4,5,51,26.3,1.3,856.5,0
4,4,45,10.2,1.3,54.6,0
4,3,39,6.7,1.2,19.1,0
4,2,33,15.1,1.2,0,23
4,1,27,11.6,1,0,12
4,6,57,7.4,1,13.2,0
4,5,51,45,1.6,1311.7,0
4,4,45,7.5,1,2.9,0
4,3,39,54.4,1.5,1736.7,0
4,2,33,9.3,1.1,0,0
4,1,27,6.5,0.9,0,9.4
3,7,39,29.5,1.3,475.4,0
3,6,33,48.9,1.25,1535.6,0
3,5,27,63.7,1.15,1375.9,0
3,4,21,51,1.1,1415.4,0
3,3,15,8,0.7,3.1,0
3,2,9,12.5,0.6,7.1,2.3625
3,1,3,6.5,0.45,0,18.025
3,6,33,9,0.85,68.4,0
3,5,27,8.5,0.75,79.3,0
3,4,21,22.7,1,125,0
3,3,15,38.8,1,87.7,3.5875
3,2,9,35.5,0.9,0,16.1875
3,1,3,7.8,0.7,0,6.2125
3,6,33,34.2,1,521.3,0
3,5,27,20.3,0.9,177.3,0
3,4,21,43.1,1.25,285,0
3,3,15,13.5,1.1,0,0
3,2,9,19.7,1.2,0,0
3,1,3,11.5,0.9,0,13.825
3,7,39,15.5,0.75,131.1,0
3,6,33,13.2,0.7,60.9,0
3,5,27,11.7,0.8,13.6,0
3,4,21,12.5,0.8,0,7.7875
3,3,15,36,0.9,9.1,25.9
3,2,9,25,0.95,0,24.9375
3,1,3,6.5,0.6,0,6.125
3,6,33,21.5,0.9,86.2,0
3,5,27,36.7,1.15,273,0
3,4,21,41.7,1.1,126.7,3.85
3,3,15,14.3,0.9,0,16.625
3,2,9,14.7,1,0,19.075
3,1,3,7.2,0.65,0,4.2
3,6,33,29,0.85,417.4,0
3,5,27,32.7,1,402.5,0
3,4,21,18,0.85,24,0
3,3,15,41.7,0.9,50.8,13.475
3,2,9,12.2,0.8,0,13.65
3,1,3,7.9,0.65,0,9.3625
3,11,63,12.2,1,88.8,0
3,10,57,10.3,0.8,61.8,0
3,9,51,35,1.2,949.4,0
3,8,45,29.6,1.15,578,0
3,7,39,26.5,0.9,424.7,0
3,6,33,22,1,252.8,0
3,5,27,21.5,0.95,83.2,0
3,4,21,50,1.1,29.8,29.8375
3,3,15,26.2,1,0,49.4375
3,2,9,20.3,0.9,0,25.2875
3,1,3,6.8,0.6,0,5.1625
3,6,39,19,0.95,115.8,0
3,5,33,35.2,1,606.5,0
3,4,27,35.2,1,606.5,0
3,3,21,35.2,1,606.5,0
3,2,15,31.8,1,0,19.075
3,1,9,34.2,1.05,0,26.075
3,5,33,46.8,0.9,588.5,0
3,4,27,38.5,0.95,680.2,0
3,3,21,32.5,1.05,110.5,7.35
3,2,15,20.3,0.9,0,22.75
3,1,9,30,1.2,0,25.9875
3,5,27,21.2,0.8,273.9,0
3,4,21,25.5,0.8,191.3,0
3,3,15,9.5,0.9,40.7,7.7
3,2,9,18.3,0.85,0,19.3375
3,1,3,9.5,0.75,0,7.7
2,12,69,7.5,1.25,10.9,0
2,11,63,13.5,0.95,126.4,0
2,10,57,43.3,1,405.2,0
2,9,51,54.3,1.2,1208.5,0
2,8,45,13.5,1,8.5,0
2,7,39,37,1.3,252.2,0
2,6,33,45.5,1.2,134.3,0
2,5,27,43.1,1.1,37.3,24.5
2,4,21,38,1.1,30.5,29
2,3,15,31,1.2,0,31
2,2,9,15.4,1,0,16.3
2,1,3,4.1,0.5,0,4.1
2,13,75,38.5,1.15,857.9,0
2,12,69,24.4,1.2,444,0
2,11,63,44.5,1.2,1098.2,0
2,10,57,26.7,1.2,217.7,0
2,9,51,42.5,1.3,983.7,0
2,8,45,15.3,1.1,34.7,0
2,7,39,13.2,1.3,48.7,0
2,6,33,14.5,1.2,14.6,2.9
2,5,27,12.6,1.2,0.1,24.9
2,4,21,40.3,1.2,3.7,44.9
2,3,15,21,1.2,0,43.1
2,2,9,18.1,1.3,0,28.5
2,1,3,8.6,0.8,0,7.1
2,7,39,52,1,996.5,0
2,6,33,49,1.15,2151.2,0
2,5,27,15.3,1.15,22.8,0
2,4,21,17.2,0.95,52,0
2,3,15,14.8,0.9,0.9,36.3
2,2,9,12.2,0.9,0,11.7
2,1,3,8.3,0.7,0,11.8
2,9,51,46.7,1.3,1213.8,0
2,8,45,31.6,1.3,651,0
2,7,39,6.2,1.1,8,0
2,6,33,13.2,1,10.9,0
2,5,27,7.8,1,3.2,0
2,4,21,9.3,0.9,0,5.8
2,3,15,8,0.8,0,17.8
2,2,9,30.3,1.1,0,25.2
2,1,3,13.5,1.1,0,17.5
2,11,63,18.6,1,137.8,0
2,10,57,27,0.95,332.4,0
2,9,51,16.6,0.7,110.3,0
2,8,45,41,1,930.4,0
2,7,39,43.7,1.2,1047.3,0
2,6,33,30,1.05,196.1,0
2,5,27,33,0.95,126.4,0
2,4,21,26.8,1,117,0
2,3,15,43.6,1,60.7,29.3
2,2,9,27.7,1,0,17
2,1,3,8.2,0.8,0,9
2,8,45,12,1.1,47.1,0
2,7,39,20,1.3,68.6,0
2,6,33,13.8,1.1,32.6,0
2,5,27,30.8,1.25,46,0
2,4,21,12.3,1,4.5,15.3
2,3,15,13.5,0.9,0,27
2,2,9,14.7,1.1,0,26
2,1,3,11.5,1,0,11.7
2,8,45,7.1,1,14.6,0
2,7,39,42.3,1,841,0
2,6,33,14.5,0.7,42.5,0
2,5,27,36.4,1,433.3,0
2,4,21,30.4,1.2,198.8,0
2,3,15,13.7,1,10.7,5.5
2,2,9,22,1,0,52.9
2,1,3,20.2,1.1,0,37.9
2,6,33,33,1.1,299.3,0
2,5,27,28.3,1.05,180.3,0
2,4,21,20.7,1.1,47.2,0
2,3,15,30.5,1.1,16.4,14.7
2,2,9,45.1,1.3,15.9,26.5
2,1,3,11.1,1,0,13.4
2,8,45,46,1,682.2,0
2,7,39,20.1,1,155.5,0
2,6,33,47.3,1.1,524.6,0
2,5,27,20.5,0.9,59.5,0
2,4,21,47,1.15,149.3,0
2,3,15,54.5,1.3,73,11.9
2,2,9,39,1.15,13.1,27.6
2,1,3,10.3,0.7,0,10.3
2,11,63,17.2,1.1,351.5,0
2,10,57,26,1.2,485.7,0
2,9,51,54,1.1,1941.9,0
2,8,45,20.9,1.2,175,0
2,7,39,49.6,1.1,581.5,0
2,6,33,65.2,1.2,1390.7,0
2,5,27,41.2,1.2,96.2,26.1
2,4,21,25.6,1.1,0,36.9
2,3,15,33.7,1.25,0,51.7
2,2,9,7.3,0.7,0,6.3
2,1,3,8.1,0.5,0,3.4
2,5,27,21.2,1,110.9,0
2,4,21,28.5,1.2,134.2,0
2,3,15,55.8,1.2,650.7,39.5
2,2,9,31,1.2,21.7,17.2
2,1,3,11.3,1,0,16.4
2,10,57,20.7,1.1,387.9,0
2,9,51,52,1,1697.2,0
2,8,45,48.8,1.2,1920.1,0
2,7,39,52,1.2,2720.6,0
2,6,33,23.5,1.15,167.5,0
2,5,27,30.5,0.95,303,0
2,4,21,39,1.15,31.8,35.9
2,3,15,12.6,0.85,0,4.7
2,2,9,28.5,1,0,32.4
2,1,3,13.9,0.7,0,14.5
2,7,39,18,1,99.3,0
2,6,33,44,1,706.9,0
2,5,27,32.6,1,328.8,0
2,4,21,51.3,1.1,1542.2,0
2,3,15,34.2,1,67.6,6.4
2,2,9,26.8,1.2,0,22.4
2,1,3,17.7,0.8,0,41.6
2,8,45,25.8,1.1,341,0
2,7,39,26.8,1,316.3,0
2,6,33,32.5,1.2,746.4,0
2,5,27,10.2,1.1,38.1,0
2,4,21,15.5,1.1,70.8,0
2,3,15,33.3,1.2,33.3,25.7
2,2,9,28.5,1.2,4,27.6
2,1,3,11.7,1,0,9.7
2,7,39,42.2,1.3,2262.7,0
2,6,33,26.7,1.4,397.1,0
2,5,27,20.4,1.3,85.6,0
2,4,21,17.1,1.1,21.2,0
2,3,15,29.1,1.2,20.7,22.1
2,2,9,20.3,1,0,20.7
2,1,3,13,1,0,13.4
2,9,51,31.5,1.2,554.1,0
2,8,45,83,1.3,1158.5,0
2,7,39,21.5,1.2,253.5,0
2,6,33,72.5,1.4,2368.2,0
2,5,27,59,1.2,1410.9,0
2,4,21,71.4,1.3,1023.8,0
2,3,15,44.7,1.1,38.6,25.8
2,2,9,37.3,1.3,0,41.3
2,1,3,19.2,0.95,0,21.3
2,9,57,17.5,1,60.8,0
2,8,51,20.2,1.05,24.8,0
2,7,45,28,0.9,145.2,0
2,6,39,35,1,181,0
2,5,33,16.6,1,16.8,0
2,4,27,22,1.15,17.5,4.7
2,3,21,25.4,1.1,0,18.1
2,2,15,23.6,1.15,0,11.9
2,1,9,12.8,0.9,0,9.3
2,6,39,15,0.8,52.3,0
2,5,33,46,0.75,502.6,0
2,4,27,29.6,1,106.5,0
2,3,21,16,0.85,12.3,0
2,2,15,23,0.8,6.7,15.2
2,1,9,19.7,0.95,0,13.4
2,8,51,27.3,1,283.7,0
2,7,45,58.2,1.1,1306.2,0
2,6,39,32.7,1,195.8,0
2,5,33,46.7,1.2,577.3,0
2,4,27,37.4,0.9,98.1,0
2,3,21,38.7,0.95,35.9,3
2,2,15,22,1.2,0,19.2
2,1,9,20.5,0.9,0,9.1
2,8,51,41.5,1,408.7,0
2,7,45,10.6,0.95,52.1,0
2,6,39,39.7,1.1,548.2,0
2,5,33,27.7,1,214.8,0
2,4,27,30.7,0.95,153.5,0
2,3,21,60,0.95,549.3,0
2,2,15,42.4,1,51.4,16.9
2,1,9,39,1.1,7.4,28.5
2,9,57,19.5,1,90.5,0
2,8,51,33,0.9,1360.7,0
2,7,45,25.7,1.1,320,0
2,6,39,17.7,1.15,139.1,0
2,5,33,22.5,1,81.3,0
2,4,27,16.1,1.05,13.3,5.5
2,3,21,9.5,0.7,0,10.5
2,2,15,32.6,1.15,8.9,28.8
2,1,9,16.2,1,0,19.6
2,6,39,37.6,0.85,513.6,0
2,5,33,24.8,0.9,306.5,0
2,4,27,21,1,147,0
2,3,21,46.7,0.9,184.9,0
2,2,15,35.4,0.85,10.5,9.6
2,1,9,27,0.95,0,12.7
2,7,45,39.2,1.2,698.3,0
2,6,39,65,1.1,1325.6,0
2,5,33,23.5,1.1,190.8,0
2,4,27,67.3,1.3,3041.1,0
2,3,21,38,1,117.5,13.4
2,2,15,36.2,1.2,15.8,28.3
2,1,9,22.9,1.2,0,19.6
2,5,33,23.6,0.8,82.6,0
2,4,27,49.3,1,635.1,0
2,3,21,51.5,0.95,70.4,5.6
2,2,15,49.5,1,32.4,15.6
2,1,9,17.3,0.8,0,8.5
2,5,33,72.1,1.1,1504.1,0
2,4,27,56,1,793.4,0
2,3,21,37.2,0.95,39,3.9
2,2,15,45.1,0.95,21.5,20.7
2,1,9,26.6,1.1,1.4,14.1
2,5,27,29.4,0.8,86.3,0
2,4,21,33,0.8,113.4,0
2,3,15,28.2,0.85,27,5.6
2,2,9,45,1,22.1,20.7
2,1,3,8.5,0.7,0,0.6537
1,8,45,46.2,1,230.8,0
1,7,39,31.6,1.05,83.5,0
1,6,33,49.2,1.05,489,0
1,5,27,4.5,1,0,7.3
1,4,21,14.8,0.85,0,14.3
1,3,15,27,0.9,0,20.2
1,2,9,8.1,0.7,0,7.1
1,1,3,2,0.4,0,2.6
1,6,33,21.7,1.1,20.3,0
1,5,27,44.5,0.9,444,0
1,4,21,62.7,1.05,1366.8,0
1,3,15,48.8,1.05,178.3,0
1,2,9,11,0.7,0,7.8
1,1,3,7.2,0.5,0,4.6
1,9,51,11.8,0.5,1.4,0
1,8,45,14.5,0.8,1.4,0
1,7,39,26.2,1.1,81,0
1,6,33,44.1,0.9,208,0
1,5,27,48.5,1.1,666.4,0
1,4,21,62.2,0.85,756.6,0.5
1,3,15,44.1,1,8.4,45.3
1,2,9,18,0.7,0,17.5
1,1,3,5,0.5,0,3.9
1,11,63,16.8,0.9,28.8,0
1,10,57,37.8,1.1,273.1,0
1,9,51,48.6,1.05,410.8,0
1,8,45,44.9,1,353,0
1,7,39,46,1.3,301.1,0
1,6,33,51,1.2,499.7,4.7
1,5,27,76.5,1.25,663.1,5.6
1,4,21,28,1.1,0,34.9
1,3,15,33.3,1.25,0,49
1,2,9,17.1,0.9,0,21.5
1,1,3,2,0.4,0,0.2
1,10,57,28,1,124.7,0
1,9,51,45.5,1,375.8,0
1,8,45,29.2,1.15,174,0
1,7,39,83.4,1,508.3,0
1,6,33,51.7,0.9,359.9,0
1,5,27,71.9,1,407.4,0
1,4,21,23.2,0.9,0,35.3
1,3,15,15.1,0.8,0,31.1
1,2,9,8,0.65,0,6.2
1,1,3,1.9,0.4,0,1.4
1,8,45,39.6,1.1,319.6,0
1,7,39,23.6,0.8,31.2,0
1,6,33,46.9,1.05,1022.5,0
1,5,27,60.8,0.95,437.1,15.2
1,4,21,5,0.8,0,3.8
1,3,15,30,0.9,0,30.1
1,2,9,18.5,0.75,0,17
1,1,3,3.1,0.5,0,1.6
1,10,57,44.6,0.85,250.8,0
1,9,51,21,1,54.4,0
1,8,45,47,1.3,631.8,0
1,7,39,35.4,1,107.1,0
1,6,33,52.3,1.1,489.4,0
1,5,27,41.5,1,83.7,14.5
1,4,21,47.3,0.8,28.3,28
1,3,15,14.5,0.6,0,8.3
1,2,9,19.6,0.7,0,12.8
1,1,3,7.3,0.4,0,4.8
1,8,45,21,0.6,8.9,0
1,7,39,30.1,1.1,160.8,0
1,6,33,34.5,1.05,318.3,0
1,5,27,53.6,1.05,1312.7,0
1,4,21,43,1.4,597.6,0
1,3,15,33.5,0.9,15,20.3
1,2,9,14.1,0.75,0,16.6
1,1,3,2.2,0.5,0,1.1
1,9,51,7.6,0.9,9.2,0
1,8,45,26.4,0.8,95.7,0
1,7,39,47.6,0.8,382.3,0
1,6,33,53.5,1,772.3,0
1,5,27,57.1,0.95,1248,0
1,4,21,66.9,1,888.4,7.9
1,3,15,58.5,0.95,107.6,31.8
1,2,9,24,1.1,0,36.9
1,1,3,11.3,0.7,0,8.7
1,9,51,12.3,0.6,15.3,0
1,8,45,43.5,1.1,746.6,0
1,7,39,21.5,0.9,116,0
1,6,33,31,1.1,190.4,0
1,5,27,26.4,1,71.9,0
1,4,21,51.5,1.2,45.1,55.4
1,3,15,15.5,0.8,0,31.6
1,2,9,9.1,0.65,0,7.7
1,1,3,3,0.5,0,1.9
1,11,63,17.7,0.8,26,0
1,10,57,22,1,62.4,0
1,9,51,16.3,1,27.8,0
1,8,45,35.2,1.1,664.5,0
1,7,39,52.7,1.2,701.9,0
1,6,33,45,1.2,808.5,0
1,5,27,32.5,1.1,62,12.6
1,4,21,10.3,0.8,0,7.3
1,3,15,27.2,0.85,0,26.5
1,2,9,17.8,0.7,0,12.7
1,1,3,2.7,0.5,0,1.9
1,11,63,14.8,0.9,15.1,0
1,10,57,37,1.2,323,0
1,9,51,30.8,1.05,114.6,0
1,8,45,35.7,1.1,266.6,0
1,7,39,51.2,1.35,531.8,0
1,6,33,16.5,1.1,15.7,0
1,5,27,60.5,1.2,341.5,0
1,4,21,35,1,0,24.6
1,3,15,16,0.9,0,25.9
1,2,9,16.5,0.7,0,10
1,1,3,9.5,0.7,0,7.9
1,9,51,14.3,0.8,35.3,0
1,8,45,46.5,0.9,266.8,0
1,7,39,20.3,0.8,57.7,0
1,6,33,62.1,1.1,132.1,0
1,5,27,52.4,1,284,10.8
1,4,21,72.1,1,184.7,21.2
1,3,15,50,1.1,2.1,49.2
1,2,9,30.5,0.95,0,37.8
1,1,3,9.5,0.7,0,9.2
1,6,33,24.5,0.8,47.4,0
1,5,27,61,0.75,175.6,0
1,4,21,58.4,0.85,218.3,0
1,3,15,21.7,0.75,0,11.5
1,2,9,18.7,0.8,0,9.5
1,1,3,8.2,0.6,0,5.8
1,7,39,18.5,0.6,22.8,0
1,6,33,28,0.8,33.5,0
1,5,27,31.2,1.05,29.8,0
1,4,21,34.2,0.95,17.5,6.2
1,3,15,51.8,1,41.4,37.8
1,2,9,48.3,1.15,0,52
1,1,3,14,0.75,0,16.3
1,7,39,14,0.7,28.3,0
1,6,33,39.6,0.8,98.2,0
1,5,27,44.7,0.85,66.3,0
1,4,21,21,0.9,6.9,3.6
1,3,15,39.5,1,8.1,30.4
1,2,9,23.5,0.95,0,22.2
1,1,3,9.5,0.6,0,7.7
1,9,51,17.7,0.8,21.1,0
1,8,45,25,0.6,19,0
1,7,39,62.7,1,863.7,0
1,6,33,15.1,1,33.1,0
1,5,27,59.4,1.05,169.8,12.7
1,4,21,32,1,0,17.2
1,3,15,26.5,1.1,0,32.5
1,2,9,28.1,1,0,27.2
1,1,3,7.9,0.6,0,9.8
1,9,51,33.2,1,177.1,0
1,8,45,8.9,1.2,9.6,0
1,7,39,29.3,1.1,63.3,0
1,6,33,58.4,1.2,869.2,0
1,5,27,21,1.2,14.6,0
1,4,21,29.8,1.1,0,10.5
1,3,15,40,1.1,0,25.3
1,2,9,37,0.95,0,27.6
1,1,3,8.1,0.7,0,9.5
1,7,39,15.4,0.7,13.4,0
1,6,33,42.3,0.85,163.5,0
1,5,27,13.6,0.8,7.9,0
1,4,21,21.5,0.8,14.8,14.9
1,3,15,43.6,0.9,0,32.4
1,2,9,32.3,1,0,31.4
1,1,3,11,0.7,0,8.4
1,9,51,36.5,1,112.4,0
1,8,45,31,1.1,165.4,0
1,7,39,66.5,1.15,739.9,0
1,6,33,52.7,1.2,348.4,0
1,5,27,74.4,1.25,1528.8,0
1,4,21,19.5,0.9,3.2,13.1
1,3,15,70,1.1,295.5,43.9
1,2,9,37,1.1,0,31.3
1,1,3,6.5,0.6,0,4.9
1,11,69,7.8,0.9,11.9,0
1,10,63,23,1,127.1,0
1,9,57,27.7,1,412.3,0
1,8,51,28.3,1,452.7,0
1,7,45,41.8,1.2,575.8,0
1,6,39,35.2,1.15,279.4,0
1,5,33,17.9,1.05,18.4,0
1,4,27,28.6,1,19.6,16.6
1,3,21,35.3,1,9.5,34.3
1,2,15,26,1,0,7.3
1,1,9,12,0.9,0,6.3
1,7,45,23,0.7,26.6,0
1,6,39,50,0.8,276,0
1,5,33,61.5,1,415.3,11
1,4,27,61.5,1.1,112.4,10
1,3,21,73.9,1.05,381.7,94.4
1,2,15,22,1,0,36.7
1,1,9,17,1,0,45.2
1,7,45,9,0.9,0,0
1,6,39,33.4,1,72.3,0
1,5,33,55,0.9,362.4,0
1,4,27,66.7,1.3,663.4,0
1,3,21,20.1,0.9,0,7.3
1,2,15,27.8,0.8,0,12
1,1,9,22,0.8,0,9.4
